Reporte Inmovalor S.A.
…
Según se puede ver en la distribución de la cantidad de casas
vendidas por mes, se puede ver que la mayor cantidad de casas se vende a
lo largo de la mitad del año: Mayo, Junio y Julio. Indicando esto como
los mejores meses para poder vender casas.

¿Cómo varian las calificaciones de calidad y condición según el tipo
de fachada y su material?

## # A tibble: 37 × 4
##    Exterior1st ExterQual mean_overallqual mean_overallcond
##    <fct>       <fct>                <dbl>            <dbl>
##  1 AsbShng     Fa                    2                3   
##  2 AsbShng     TA                    4.63             5.26
##  3 AsphShn     TA                    5                5   
##  4 BrkComm     TA                    4                3   
##  5 BrkFace     Gd                    7.33             5.83
##  6 BrkFace     TA                    5.47             5.61
##  7 CBlock      Fa                    4                6   
##  8 CemntBd     Ex                    8.8              5.53
##  9 CemntBd     Gd                    7.73             5.23
## 10 CemntBd     TA                    4.83             5.92
## # ℹ 27 more rows
…
